[
  { "name": "Dominic MaY", "id": 1 },
  { "name": "Stephanie Hudson", "bags": 3, "id": 2 },
  { "name": "Nicola Mackay", "bags": 2, "id": 3 },
  { "name": "Sally North", "bags": 5, "id": 4 },
  { "name": "Connor Allan", "bags": 1, "id": 5 }
]
